…
    Dict{Bool, Int64} with 2 entries:
      0 => 207
      1 => 104

``` julia
dft = df[:,["bw_zscore","low_education","parity_bin","smoking","gest_diabetis","maternal age",
            "placenta_al","placenta_cr","placenta_ni","placenta_se","placenta_co","placenta_pb"]];
show(dft)
```

    311×12 DataFrame
     Row │ bw_zscore   low_education  parity_bin  smoking  gest_diabetis  maternal ⋯
         │ Float64     Bool           Bool        Bool     Bool           Float64? ⋯
    ─────┼──────────────────────────────────────────────────────────────────────────
       1 │ -0.454284           false        true    false          false       35. ⋯
       2 │ -0.0715015          false       false    false          false       30.
       3 │ -0.186338            true        true    false          false       24.
       4 │  1.37646             true        true    false          false       23.
       5 │  2.17201            false        true    false          false       27. ⋯
       6 │  1.02761            false        true    false           true       35.
       7 │ -1.03438             true       false     true          false       32.
       8 │  0.3278             false        true    false          false       36.
       9 │  0.819531            true       false    false          false       28. ⋯
      10 │ -0.358588            true        true    false          false       26.
      11 │ -0.468257            true       false    false           true       29.
      ⋮  │     ⋮             ⋮            ⋮          ⋮           ⋮             ⋮   ⋱
     302 │  1.32336             true        true     true           true       33.
     303 │  0.774269           false        true    false          false       38. ⋯
     304 │  0.183687           false       false    false          false       37.
     305 │ -0.495196           false       false    false          false       30.
     306 │  0.440867           false        true    false           true       36.
     307 │ -0.371664            true       false    false          false       30. ⋯
     308 │ -0.248184           false        true    false          false       29.
     309 │ -0.0379639          false       false    false          false       31.
     310 │ -0.671646           false        true    false          false       33.
     311 │  1.18438             true        true    false          false       36. ⋯
                                                      7 columns and 290 rows omitted
…
