…
``` julia
tmp = DataFrame(results,:auto)
rename!(tmp,["parameters","advi_mean","advi_2.5%","advi_97.5%"])
show(tmp)
```

    62×4 DataFrame
     Row │ parameters              advi_mean  advi_2.5%   advi_97.5% 
         │ Any                     Any        Any         Any        
    ─────┼───────────────────────────────────────────────────────────
       1 │ sigma                   46.6214    24.6448     80.3045
       2 │ Intercept               1.80514    0.00187761  3.60444
       3 │ h_mbmi_None             0.531899   0.266752    0.809667
       4 │ hs_wgtgain_None         0.106517   -0.301507   0.468765
       5 │ h_age_None              0.673467   0.519783    0.815241
       6 │ h_abs_ratio_preg_Log    0.352907   -0.933692   1.67205
       7 │ h_no2_ratio_preg_Log    1.69146    0.328859    3.08612
       8 │ h_pm10_ratio_preg_None  1.07501    0.900069    1.25294
       9 │ h_pm25_ratio_preg_None  1.66871    1.02198     2.35674
      10 │ hs_as_m_Log2            0.026667   -1.39355    1.31836
      11 │ hs_cd_m_Log2            0.09976    -0.413523   0.622815
      ⋮  │           ⋮                 ⋮          ⋮           ⋮
      53 │ hs_meohp_madj_Log2      -0.893147  -1.91758    0.169287
      54 │ hs_mep_madj_Log2        0.987388   0.655608    1.30409
      55 │ hs_mibp_madj_Log2       0.856288   0.00265975  1.69291
      56 │ hs_mnbp_madj_Log2       0.344048   -0.194063   0.825632
      57 │ hs_ohminp_madj_Log2     0.441602   -0.0879747  0.948027
      58 │ hs_oxominp_madj_Log2    -0.426741  -0.662123   -0.195485
      59 │ hs_sumDEHP_madj_Log2    1.74771    1.24623     2.22577
      60 │ h_bro_preg_Log          -0.815799  -1.76905    0.0914334
      61 │ h_clf_preg_Log          0.791142   0.534681    1.05081
      62 │ h_thm_preg_Log          -0.623156  -2.4198     1.02868
                                                      41 rows omitted
